{
  "src_folders" : ["tests/test"],
  "output_folder" : "reports",
  "custom_commands_path" : "./node_modules/nightwatch-commands/commands",
  "custom_assertions_path" : "./node_modules/nightwatch-commands/assertions",
  "page_objects_path" : "",
  "globals_path" : "",

  "selenium" : {
    "start_process" : false,
    "host": "ondemand.saucelabs.com",
    "port": 80
  },

  "test_settings" : {
    "default" : {
      "launch_url" : "http://test.carisok.com/imall/",
      "silent": true,
      "output": true,
      "selenium_host": "ondemand.saucelabs.com",
      "selenium_port": 80,
      "username": "sayu111",
      "access_key": "2b5e22fb-c234-4241-b97d-08bec1033044",
      "desiredCapabilities": {
        "browserName": "chrome",
        "platform": "Windows 10",
        "version": "48"
      }
    },
    "ie11" : {
      "desiredCapabilities": {
        "browserName": "internet explorer",
        "platform": "Windows 10",
        "version": "11.0"
      }
    },
    "safari" : {
      "desiredCapabilities": {
        "browserName": "safari",
        "platform": "OS X 10.11",
        "version": "9.0"
      }
    },
    "edge" : {
      "desiredCapabilities": {
        "browserName": "MicrosoftEdge",
        "platform": "Windows 10",
        "version": "13.10586"
      }
    },
    "ffox" : {
      "desiredCapabilities": {
        "browserName": "firefox",
        "platform": "Linux",
        "version": "45.0"
      }
    },
    "ios" : {
      "desiredCapabilities": {
        "browserName": "Safari",
        "platformVersion": "9.3",
        "platformName": "iOS",
        "deviceName" : "iPhone 6s Simulator",
        "deviceOrientation": "portrait"
      }
    },
    "android" : {
      "desiredCapabilities": {
        "browserName": "Browser",
        "platformVersion": "4.4",
        "platformName": "Android",
        "deviceName" : "Android Emulator",
        "deviceOrientation": "portrait",
        "deviceType": "tablet"
      }
    }
  }
}
